Olympics analysis
…
## # A tibble: 2 x 2
##   season      n
##   <chr>   <int>
## 1 Summer 222552
## 2 Winter  48564

Olympic cities

olympics %>% 
    distinct(games, .keep_all = TRUE) %>% 
    count(city, sort = TRUE)

## # A tibble: 42 x 2
##    city             n
##    <chr>        <int>
##  1 Athina           3
##  2 London           3
##  3 Innsbruck        2
##  4 Lake Placid      2
##  5 Los Angeles      2
##  6 Paris            2
##  7 Sankt Moritz     2
##  8 Albertville      1
##  9 Amsterdam        1
## 10 Antwerpen        1
## # ... with 32 more rows
…
